<svg width="8" height="11" viewBox="0 0 8 11" fill="none" xmlns="http://www.w3.org/2000/svg">
<path d="M3.54537 10.3536C3.74064 10.5488 4.05722 10.5488 4.25248 10.3536L7.43446 7.17157C7.62972 6.97631 7.62972 6.65973 7.43446 6.46447C7.2392 6.2692 6.92262 6.2692 6.72735 6.46447L3.89893 9.29289L1.0705 6.46447C0.875237 6.2692 0.558654 6.2692 0.363392 6.46447C0.16813 6.65973 0.16813 6.97631 0.363392 7.17157L3.54537 10.3536ZM3.39893 2.03562e-08L3.39893 10L4.39893 10L4.39893 -2.03562e-08L3.39893 2.03562e-08Z" fill="#099F79"/>
</svg>
