<svg width="118" height="42" viewBox="0 0 118 42" fill="none" xmlns="http://www.w3.org/2000/svg">
<path d="M3.63498 20.7357L20.6025 37.813L37.5693 20.7357L20.6025 3.65907L3.63498 20.7357ZM8.60392 28.182L6.89005 26.4571L1.21166 20.7393L6.89005 15.0222L8.60392 13.2973V8.66286H13.2066L20.5989 1.21945L26.2766 6.93724L27.9905 8.66214H32.5939V13.2966L34.3071 15.0222L39.9855 20.7393L34.3071 26.4564L32.5939 28.182V32.8172H27.9905L26.2766 34.5428L20.5989 40.2599L14.9205 34.5428L13.2066 32.8172H8.60392V28.182ZM20.5982 0L13.7089 6.9358H6.89005V13.8006L0 20.735L6.89005 27.6715V34.5356H13.7089L20.5989 41.4714L27.4882 34.5356H34.3071V27.6708L41.1971 20.735L34.3071 13.7992V6.93507H27.4882L20.5982 0Z" fill="#00805F"/>
<path d="M1.20898 20.733L8.60054 13.2918V8.65804H13.204L20.5955 1.2168L27.9871 8.65804H32.5905V13.2925L39.9835 20.7323L32.5912 28.1736V32.808H27.9878L20.5962 40.2493L13.2047 32.808H8.60125V28.1736L1.20898 20.733ZM8.59838 25.7318C11.4606 22.2581 15.7755 20.0415 20.5905 20.0408C24.3068 20.0408 27.3374 16.99 27.3374 13.2483C27.3374 11.4815 26.6617 9.86807 25.5573 8.65731L20.5905 3.65642L15.623 8.65804L8.5991 15.73L3.63231 20.7316L8.5991 25.7325L8.59838 25.7318ZM32.5905 15.7343C29.7283 19.208 25.4119 21.4246 20.5955 21.4246C16.8778 21.4253 13.8465 24.4768 13.8465 28.2185C13.8465 29.9853 14.5228 31.598 15.628 32.8088H15.6266L20.5955 37.8097L25.5645 32.8088L32.5905 25.7361L37.5595 20.7352L32.5905 15.7343Z" fill="#FAAE17"/>
<path d="M63.0963 34.538H59.6693L66.1808 21.4275H69.6079L76.1194 34.538H72.6917L71.6642 32.467H64.1237L63.0963 34.538ZM41.8477 21.4275H55.0421C55.9049 21.4302 56.7315 21.7764 57.3416 22.3904C57.9516 23.0045 58.2954 23.8366 58.2979 24.7049C58.2956 25.5733 57.9518 26.4055 57.3418 27.0197C56.7317 27.6338 55.9049 27.9799 55.0421 27.9824C55.9049 27.9851 56.7315 28.3313 57.3416 28.9453C57.9516 29.5594 58.2954 30.3915 58.2979 31.2598C58.2956 32.1283 57.9519 32.9606 57.3418 33.5748C56.7318 34.1891 55.905 34.5353 55.0421 34.538H41.8477V21.4275ZM41.8477 6.9375H45.2754V12.4576H54.8708V6.9375H58.2979V20.0473H54.8708V14.5279H45.2754V20.0473H41.8477V6.9375ZM71.6642 17.9777H64.1237L63.0963 20.0473H59.6693L66.1808 6.9375H69.6079L76.1194 20.0473H72.6917L71.6642 17.9777ZM65.1527 15.9146H70.6353L67.894 10.3873L65.1527 15.9146ZM77.4901 6.9375H80.9172V17.9777H90.5133V20.0473H77.4901V6.9375ZM95.316 20.0473H91.8868V14.5279L85.3731 6.9375H88.8016L93.6014 12.4576L98.4013 6.9375H101.83L95.316 14.5279V20.0473ZM102.851 6.9375H106.28V12.4576L113.824 6.9375H117.595L108.749 13.4924L117.595 20.0473H113.824L106.28 14.5279V20.0473H102.851V6.9375ZM110.048 34.538H106.279L98.7388 29.0179V34.538H95.311V21.4275H98.7388V26.9476L106.279 21.4275H110.048L101.206 27.9824L110.048 34.538ZM77.4901 21.4275H80.9172L90.5133 31.0875V21.4275H93.9403V34.538H90.5133L80.9172 24.878V34.538H77.4901V21.4275ZM45.2754 23.4978V26.9476H53.1577C53.6117 26.9461 54.0467 26.7638 54.3676 26.4407C54.6886 26.1175 54.8695 25.6796 54.8708 25.2227C54.8695 24.7658 54.6886 24.3279 54.3676 24.0048C54.0467 23.6816 53.6117 23.4993 53.1577 23.4978H45.2754ZM45.2754 29.0179V32.4749H53.1577C53.6122 32.473 54.0475 32.2902 54.3685 31.9663C54.6895 31.6424 54.8701 31.2039 54.8708 30.7464C54.8699 30.289 54.6892 29.8506 54.3683 29.5268C54.0473 29.2029 53.6121 29.02 53.1577 29.0179H45.2754ZM70.6361 30.4046L67.8947 24.8773L65.1527 30.4046H70.6361Z" fill="#008060"/>
</svg>
