<svg width="135" height="46" viewBox="0 0 135 46" fill="none" xmlns="http://www.w3.org/2000/svg">
<path fill-rule="evenodd" clip-rule="evenodd" d="M15.5678 7.55914L23.1891 0L30.8106 7.55914H38.7569V15.4409L46.3783 23L38.7569 30.5592V38.4409H30.8106L23.1891 46L15.5678 38.4409H7.62129V30.5592L0 23L7.62129 15.4409V7.55914H15.5678V7.55914ZM15.8411 8.11299L23.1891 0.825073L30.5372 8.11299H38.1985V15.7121L45.5464 23L38.1985 30.288V37.887H30.5372L23.1891 45.1749L15.8411 37.887H8.17969V30.288L0.831857 23L8.17969 15.7121V8.11299H15.8411V8.11299Z" fill="#00926E"/>
<path d="M50.1758 21.9659V7.44922H53.5796V13.0759H64.2162V7.44922H67.6482V21.9659H64.2162V15.7204H53.5796V21.9659H50.1758ZM75.3586 16.1704H81.7642L78.5922 10.2625L75.3586 16.1704ZM68.8065 21.9659L77.0558 7.44922H80.3508L88.7466 21.9659H84.9174L83.1588 18.7868H73.8837L72.1818 21.9659H68.8065V21.9659ZM89.6258 21.9659V7.44922H93.0296V19.237H104.007V21.9659H89.6258V21.9659ZM105.179 21.9659V15.4718L97.5821 7.44922H102.116L107.136 13.0149L112.185 7.44922H116.184L108.611 15.3875V21.9659H105.179V21.9659ZM117.324 21.9659V7.44922H120.756V13.4978L128.868 7.44922H133.808L124.103 14.2902L134.999 21.9659H129.52L120.756 15.5797V21.9659H117.324Z" fill="#00926E"/>
<path d="M53.2291 32.8502H59.4247L56.3497 27.0937L53.2291 32.8502V32.8502ZM46.8965 38.497L54.8739 24.3525H58.0494L66.1686 38.497H62.4677L60.768 35.3994H51.8036L50.1541 38.497H46.8965V38.497ZM67.0183 38.497V24.3525H70.3355V30.2461L78.1714 24.3525H82.946L73.5703 31.0182L84.0974 38.497H78.8019L70.3355 32.2745V38.497H67.0183ZM93.6375 26.8745V38.497H90.3478V26.8745H83.8506V24.3525H100.162V26.8745H93.6375ZM117.789 38.497V24.3525H115.541L105.59 32.6902C105.179 33.0101 104.877 33.2659 104.69 33.4532C104.507 33.636 104.265 33.8918 103.973 34.2208C104 33.8827 104.023 33.5766 104.037 33.3116C104.05 33.042 104.069 32.7907 104.087 32.5486C104.105 32.3294 104.114 32.0735 104.114 31.7811V24.3525H101.149V38.497H103.397L113.787 29.7481C114.052 29.5243 114.271 29.3232 114.445 29.1496C114.641 28.9623 114.815 28.7795 114.966 28.6013C114.956 28.7613 114.938 28.976 114.911 29.241C114.883 29.5105 114.865 29.7069 114.851 29.8394C114.833 30.109 114.824 30.4471 114.824 30.8491V38.497H117.789V38.497ZM129.623 26.6551H122.116V30.0268H129.623C130.181 30.0268 130.573 29.9536 130.802 29.812C131.026 29.643 131.135 29.378 131.135 29.0125V27.6694C131.135 27.3039 131.026 27.0389 130.802 26.8699C130.573 26.7283 130.181 26.6551 129.623 26.6551V26.6551ZM129.623 32.3567H122.116V35.9477H129.623C130.258 35.9477 130.679 35.8563 130.889 35.6736C131.108 35.4817 131.218 35.1527 131.218 34.6913V33.6222C131.218 33.1517 131.108 32.8228 130.889 32.6309C130.674 32.4481 130.254 32.3567 129.623 32.3567ZM118.881 38.497V24.3525H130.998C132.104 24.3525 132.922 24.5719 133.443 25.015C133.932 25.4536 134.178 26.148 134.178 27.0983V28.8207C134.178 29.4831 133.968 30.0222 133.548 30.4425C133.114 30.8766 132.511 31.1278 131.739 31.2054C132.556 31.3151 133.187 31.6121 133.63 32.0872C134.073 32.5486 134.293 33.1563 134.293 33.9192V35.7284C134.293 36.6421 133.945 37.3365 133.246 37.8162C132.575 38.2685 131.533 38.497 130.121 38.497H118.881V38.497Z" fill="#F9B101"/>
<path fill-rule="evenodd" clip-rule="evenodd" d="M10.3054 10.2213H16.7138L23.1891 3.79883L29.6646 10.2213H36.0728V16.5775L42.5483 23L36.0728 29.4225V35.7786H29.6646L23.1891 42.2011L16.7138 35.7786H10.3054V29.4225L3.83008 23L10.3054 16.5775V10.2213Z" fill="#00926E"/>
<path fill-rule="evenodd" clip-rule="evenodd" d="M36.072 16.5775L23.1884 3.79883L10.3047 16.5775V35.7786H36.072V16.5775ZM24.3895 25.58C18.6487 26.1682 16.3816 29.7102 16.7123 34.3271H34.6126L34.6105 22.0545C32.179 23.8619 29.3016 25.0766 24.3895 25.58ZM11.7743 27.2841C14.4207 25.5267 17.5632 24.8446 23.7288 23.9486C30.7347 22.9304 31.2154 16.6675 27.6179 10.2359L23.1963 5.84682L11.7694 17.1779L11.7743 27.2841Z" fill="#F9B101"/>
</svg>
