<svg width="135" height="46" viewBox="0 0 135 46" fill="none" xmlns="http://www.w3.org/2000/svg">
<path fill-rule="evenodd" clip-rule="evenodd" d="M15.5678 7.55914L23.1891 0L30.8106 7.55914H38.7569V15.4409L46.3783 23L38.7569 30.5592V38.4409H30.8106L23.1891 46L15.5678 38.4409H7.62129V30.5592L0 23L7.62129 15.4409V7.55914H15.5678V7.55914ZM15.8411 8.11299L23.1891 0.825073L30.5372 8.11299H38.1985V15.7121L45.5464 23L38.1985 30.288V37.887H30.5372L23.1891 45.1749L15.8411 37.887H8.17969V30.288L0.831857 23L8.17969 15.7121V8.11299H15.8411V8.11299Z" fill="#00926E"/>
<path d="M50.1765 21.9654V7.44876H53.5803V13.0754H64.2169V7.44876H67.649V21.9654H64.2169V15.7199H53.5803V21.9654H50.1765ZM75.3594 16.17H81.765L78.5929 10.2621L75.3594 16.17ZM68.8072 21.9654L77.0565 7.44876H80.3515L88.7473 21.9654H84.9182L83.1595 18.7864H73.8844L72.1825 21.9654H68.8072V21.9654ZM89.6266 21.9654V7.44876H93.0304V19.2365H104.007V21.9654H89.6266V21.9654ZM105.18 21.9654V15.4714L97.5828 7.44876H102.116L107.137 13.0145L112.186 7.44876H116.185L108.612 15.387V21.9654H105.18V21.9654ZM117.324 21.9654V7.44876H120.756V13.4973L128.869 7.44876H133.809L124.103 14.2898L135 21.9654H129.521L120.756 15.5792V21.9654H117.324Z" fill="#00926E"/>
<path d="M53.2288 32.8501H59.4244L56.3494 27.0937L53.2288 32.8501V32.8501ZM46.8962 38.4969L54.8736 24.3525H58.0491L66.1683 38.4969H62.4674L60.7677 35.3994H51.8033L50.1538 38.4969H46.8962V38.4969ZM67.018 38.4969V24.3525H70.3352V30.246L78.1711 24.3525H82.9457L73.57 31.0181L84.097 38.4969H78.8016L70.3352 32.2745V38.4969H67.018ZM93.6372 26.8744V38.4969H90.3475V26.8744H83.8503V24.3525H100.162V26.8744H93.6372ZM117.789 38.4969V24.3525H115.541L105.59 32.6902C105.179 33.01 104.877 33.2659 104.69 33.4532C104.507 33.6359 104.265 33.8918 103.972 34.2207C104 33.8826 104.022 33.5765 104.036 33.3116C104.05 33.042 104.068 32.7907 104.086 32.5486C104.105 32.3293 104.114 32.0735 104.114 31.7811V24.3525H101.149V38.4969H103.397L113.787 29.7481C114.052 29.5242 114.271 29.3232 114.444 29.1495C114.641 28.9623 114.815 28.7795 114.965 28.6013C114.956 28.7612 114.938 28.976 114.91 29.2409C114.883 29.5105 114.865 29.7069 114.851 29.8394C114.833 30.1089 114.824 30.447 114.824 30.8491V38.4969H117.789V38.4969ZM129.623 26.6551H122.116V30.0268H129.623C130.18 30.0268 130.573 29.9536 130.802 29.812C131.026 29.643 131.135 29.378 131.135 29.0125V27.6694C131.135 27.3038 131.026 27.0389 130.802 26.8698C130.573 26.7282 130.18 26.6551 129.623 26.6551V26.6551ZM129.623 32.3567H122.116V35.9476H129.623C130.258 35.9476 130.678 35.8562 130.888 35.6736C131.108 35.4817 131.217 35.1527 131.217 34.6912V33.6222C131.217 33.1516 131.108 32.8227 130.888 32.6309C130.674 32.4481 130.253 32.3567 129.623 32.3567ZM118.881 38.4969V24.3525H130.998C132.104 24.3525 132.922 24.5718 133.442 25.015C133.931 25.4536 134.178 26.148 134.178 27.0983V28.8207C134.178 29.483 133.968 30.0222 133.548 30.4424C133.114 30.8765 132.51 31.1277 131.738 31.2054C132.556 31.315 133.187 31.612 133.63 32.0871C134.073 32.5486 134.292 33.1562 134.292 33.9191V35.7284C134.292 36.6421 133.945 37.3365 133.246 37.8162C132.574 38.2684 131.533 38.4969 130.121 38.4969H118.881V38.4969Z" fill="#F9B101"/>
<path fill-rule="evenodd" clip-rule="evenodd" d="M10.3054 10.2213H16.7138L23.1891 3.79884L29.6646 10.2213H36.0728V16.5775L42.5483 23L36.0728 29.4225V35.7786H29.6646L23.1891 42.2011L16.7138 35.7786H10.3054V29.4225L3.83008 23L10.3054 16.5775V10.2213Z" fill="#00926E"/>
<path fill-rule="evenodd" clip-rule="evenodd" d="M36.0727 16.5775L23.1891 3.79884L10.3054 16.5775V35.7786H36.0727V16.5775ZM24.3901 25.58C18.6493 26.1682 16.3822 29.7102 16.713 34.3271H34.6132L34.6111 22.0546C32.1797 23.862 29.3022 25.0766 24.3901 25.58ZM11.775 27.2841C14.4214 25.5267 17.5638 24.8446 23.7295 23.9486C30.7353 22.9304 31.2161 16.6675 27.6185 10.2359L23.197 5.84684L11.77 17.1779L11.775 27.2841Z" fill="#F9B101"/>
</svg>
