<svg width="257" height="88" viewBox="0 0 257 88" fill="none" xmlns="http://www.w3.org/2000/svg">
<path fill-rule="evenodd" clip-rule="evenodd" d="M29.5389 14.461L43.9999 0L58.4614 14.461H73.539V29.5391L88.0001 44.0001L73.539 58.461V73.539H58.4614L43.9999 88L29.5389 73.539H14.461V58.461L0 44.0001L14.461 29.5391V14.461H29.5389ZM30.0577 15.5205L43.9999 1.5784L57.9425 15.5205H72.4795V30.058L86.4217 44.0001L72.4795 57.9423V72.4795H57.9425L43.9999 86.4216L30.0577 72.4795H15.5205V57.9423L1.5784 44.0001L15.5205 30.058V15.5205H30.0577Z" fill="white"/>
<path d="M95.207 42.021V14.25H101.666V25.014H121.848V14.25H128.36V42.021H121.848V30.0731H101.666V42.021H95.207ZM142.99 30.9341H155.144L149.125 19.632L142.99 30.9341ZM130.558 42.021L146.21 14.25H152.462L168.393 42.021H161.127L157.79 35.9394H140.191L136.962 42.021H130.558ZM170.061 42.021V14.25H176.52V36.8005H197.348V42.021H170.061ZM199.573 42.021V29.5976L185.158 14.25H193.76L203.286 24.8975L212.866 14.25H220.454L206.085 29.4362V42.021H199.573ZM222.616 42.021V14.25H229.128V25.8212L244.521 14.25H253.894L235.479 27.3372L256.155 42.021H245.759L229.128 29.804V42.021H222.616Z" fill="white"/>
<path d="M100.998 62.8422H112.754L106.919 51.8299L100.998 62.8422ZM88.9824 73.6448L104.119 46.5859H110.144L125.55 73.6448H118.528L115.303 67.7191H98.2934L95.1636 73.6448H88.9824ZM127.162 73.6448V46.5859H133.457V57.8605L148.325 46.5859H157.384L139.595 59.3375L159.569 73.6448H149.521L133.457 61.7411V73.6448H127.162ZM177.671 51.4105V73.6448H171.429V51.4105H159.101V46.5859H190.051V51.4105H177.671ZM223.497 73.6448V46.5859H219.232L200.35 62.5363C199.57 63.1482 198.998 63.6376 198.642 63.9959C198.295 64.3455 197.836 64.835 197.281 65.4643C197.333 64.8175 197.376 64.2319 197.402 63.725C197.428 63.2093 197.463 62.7286 197.498 62.2654C197.532 61.8459 197.55 61.3565 197.55 60.7972V46.5859H191.923V73.6448H196.189L215.903 56.9079C216.406 56.4797 216.822 56.0951 217.151 55.7629C217.524 55.4046 217.854 55.0549 218.14 54.7141C218.122 55.02 218.088 55.4308 218.036 55.9377C217.984 56.4534 217.949 56.8291 217.923 57.0825C217.888 57.5982 217.871 58.245 217.871 59.0141V73.6448H223.497ZM245.951 50.9908H231.708V57.441H245.951C247.009 57.441 247.755 57.3011 248.188 57.0302C248.613 56.7068 248.821 56.2 248.821 55.5006V52.9312C248.821 52.2319 248.613 51.725 248.188 51.4017C247.755 51.1308 247.009 50.9908 245.951 50.9908ZM245.951 61.8983H231.708V68.7679H245.951C247.157 68.7679 247.954 68.5931 248.353 68.2436C248.769 67.8765 248.977 67.2472 248.977 66.3644V64.3193C248.977 63.4191 248.769 62.7899 248.353 62.4228C247.945 62.0731 247.148 61.8983 245.951 61.8983ZM225.57 73.6448V46.5859H248.561C250.659 46.5859 252.211 47.0056 253.199 47.8533C254.127 48.6923 254.595 50.0208 254.595 51.8387V55.1337C254.595 56.4009 254.196 57.4322 253.399 58.2362C252.575 59.0666 251.431 59.5473 249.965 59.6958C251.517 59.9056 252.714 60.4738 253.555 61.3826C254.395 62.2654 254.812 63.4279 254.812 64.8873V68.3485C254.812 70.0964 254.153 71.4249 252.826 72.3426C251.552 73.2077 249.575 73.6448 246.897 73.6448H225.57Z" fill="white"/>
<path d="M90.0749 84.8131H91.3615L90.7243 83.6165L90.0749 84.8131ZM88.7578 85.9867L90.4156 83.0469H91.0757L92.763 85.9867H91.9939L91.6405 85.3428H89.7786L89.4368 85.9867H88.7578ZM93.2758 85.9867V83.0469H93.9651V84.2718L95.5945 83.0469H96.585L94.6364 84.4322L96.8242 85.9867H95.7256L93.9651 84.6933V85.9867H93.2758ZM99.2533 83.571V85.9867H98.5695V83.571H97.2193V83.0469H100.608V83.571H99.2533ZM104.444 85.9867V83.0469H103.976L101.907 84.7798C101.821 84.8462 101.759 84.8995 101.719 84.9384C101.676 84.9821 101.626 85.0361 101.572 85.0979C101.576 85.0382 101.58 84.9744 101.585 84.9042C101.588 84.8348 101.592 84.7836 101.595 84.7503C101.599 84.7049 101.601 84.6515 101.601 84.5908V83.0469H100.985V85.9867H101.452L103.612 84.1684C103.673 84.1152 103.719 84.0734 103.749 84.044C103.794 83.9983 103.83 83.9602 103.857 83.93C103.855 83.9633 103.851 84.0079 103.845 84.0628C103.84 84.1189 103.836 84.1597 103.834 84.1873C103.83 84.2433 103.828 84.3136 103.828 84.3971V85.9867H104.444ZM107.536 83.5254H105.976V84.2262H107.536C107.652 84.2262 107.734 84.2111 107.781 84.1816C107.828 84.1464 107.851 84.0915 107.851 84.0155V83.7363C107.851 83.6604 107.828 83.6051 107.781 83.5701C107.734 83.5408 107.652 83.5254 107.536 83.5254ZM107.536 84.7105H105.976V85.4568H107.536C107.668 85.4568 107.756 85.4378 107.799 85.4C107.845 85.36 107.868 85.2918 107.868 85.1957V84.9736C107.868 84.8757 107.845 84.8075 107.799 84.7675C107.755 84.7295 107.667 84.7105 107.536 84.7105ZM105.304 85.9867V83.0469H107.822C108.052 83.0469 108.222 83.0925 108.33 83.1846C108.432 83.2758 108.483 83.4201 108.483 83.6176V83.9756C108.483 84.1131 108.439 84.2252 108.352 84.3126C108.262 84.4027 108.136 84.4551 107.976 84.4713C108.146 84.494 108.277 84.5558 108.369 84.6546C108.461 84.7503 108.507 84.8766 108.507 85.0353V85.4113C108.507 85.6012 108.435 85.7455 108.289 85.8452C108.15 85.9392 107.933 85.9867 107.64 85.9867H105.304ZM111.069 83.571V85.9867H110.386V83.571H109.036V83.0469H112.425V83.571H111.069ZM112.779 85.9867V83.0469H115.787V83.5483H113.462V84.2036H114.819V84.7049H113.462V85.4341H115.816V85.9867H112.779ZM118.721 83.5539H117.183V84.3345H118.721C118.841 84.3345 118.922 84.3174 118.966 84.2832C119.008 84.2491 119.029 84.1882 119.029 84.1008V83.7875C119.029 83.7002 119.008 83.6394 118.966 83.6051C118.922 83.571 118.841 83.5539 118.721 83.5539ZM116.511 85.9867V83.0469H119.022C119.253 83.0469 119.425 83.0904 119.536 83.1788C119.638 83.2691 119.69 83.4143 119.69 83.6165V84.2718C119.69 84.4693 119.638 84.6128 119.535 84.7039C119.427 84.7959 119.256 84.8416 119.022 84.8416H117.183V85.9867H116.511ZM123.912 85.4341H121.712V84.4884C121.712 84.1957 121.8 83.9671 121.975 83.8046C122.144 83.6488 122.385 83.571 122.699 83.571H123.912V85.4341ZM124.971 85.9867V85.435H124.601V83.0469H122.704C122.164 83.0469 121.748 83.1722 121.456 83.4239C121.172 83.6737 121.03 84.0326 121.03 84.4998V85.435H120.647V85.9867H124.971ZM126.749 85.9867V83.0469H127.431L127.438 85.9867H126.749Z" fill="white"/>
<path fill-rule="evenodd" clip-rule="evenodd" d="M134.833 85.4805H133.294V84.7H134.833C134.95 84.7 135.032 84.7172 135.078 84.7513C135.119 84.7875 135.14 84.8481 135.14 84.9336V85.2481C135.14 85.3334 135.119 85.3942 135.078 85.4303C135.033 85.4636 134.951 85.4805 134.833 85.4805ZM148.591 85.9662L148.663 85.9693L148.16 86.7953L147.819 86.796L148.163 85.9877H147.521L145.761 84.6943V85.9877H145.072V83.0478H145.761V84.2727L147.39 83.0478H148.382L146.433 84.4332L148.591 85.9662ZM158.107 85.9877V85.435H159.788H160.74V84.9508H158.837C158.552 84.9508 158.36 84.9013 158.26 84.8017C158.159 84.7049 158.107 84.5225 158.107 84.2556V83.0478H158.791V84.4437H160.74V83.0478H161.423V85.2927C161.423 85.5585 161.374 85.7408 161.274 85.8404C161.169 85.9384 160.975 85.9877 160.693 85.9877H159.736H158.837H158.107ZM155.925 83.5549H154.387V84.3355H155.925C156.045 84.3355 156.126 84.3184 156.17 84.2841C156.212 84.25 156.233 84.1892 156.233 84.1018V83.7885C156.233 83.7012 156.212 83.6404 156.17 83.6061C156.126 83.572 156.045 83.5549 155.925 83.5549ZM153.715 85.9877V83.0478H156.226C156.457 83.0478 156.629 83.0914 156.74 83.1798C156.842 83.2701 156.894 83.4153 156.894 83.6175V84.2727C156.894 84.4703 156.842 84.6138 156.739 84.7049C156.631 84.7969 156.46 84.8425 156.226 84.8425H154.387V85.9877H153.715ZM150.423 84.814H151.709L151.072 83.6175L150.423 84.814ZM149.105 85.9877L150.763 83.0478H151.423L153.111 85.9877H152.342L151.988 85.3438H150.126L149.784 85.9877H149.105ZM143.619 83.572H141.773V85.435H143.619V84.8027L144.302 84.9442V85.2916C144.302 85.5585 144.253 85.7408 144.153 85.8404C144.048 85.9384 143.855 85.9877 143.572 85.9877H141.82C141.537 85.9877 141.344 85.9384 141.238 85.8404C141.139 85.7408 141.089 85.5585 141.089 85.2927V83.743C141.089 83.478 141.139 83.2957 141.238 83.1969C141.343 83.0972 141.536 83.0478 141.82 83.0478H143.572C143.855 83.0478 144.049 83.0972 144.153 83.1969C144.253 83.2957 144.302 83.478 144.302 83.743V84.0222L143.619 84.1312V83.572ZM137.718 84.814H139.004L138.367 83.6175L137.718 84.814ZM136.4 85.9877L138.058 83.0478H138.718L140.406 85.9877H139.636L139.283 85.3438H137.421L137.079 85.9877H136.4ZM132.623 83.0469V85.9877H135.135C135.365 85.9877 135.536 85.944 135.647 85.8566C135.751 85.7655 135.802 85.6184 135.802 85.4171V84.7619C135.802 84.5653 135.751 84.4208 135.647 84.3298C135.538 84.2385 135.367 84.193 135.135 84.193H133.294V83.5549H135.512L135.704 83.0469H133.294H132.623Z" fill="white"/>
<path fill-rule="evenodd" clip-rule="evenodd" d="M170.512 83.6133L170.906 84.007L171.3 84.4008L170.906 84.7946L170.512 85.1883L170.118 84.7946L169.725 84.4008L170.118 84.007L170.512 83.6133Z" fill="white"/>
<path fill-rule="evenodd" clip-rule="evenodd" d="M19.5541 19.5561H31.7137L44.0002 7.26953L56.287 19.5561H68.4463V31.7156L80.7331 44.0022L68.4463 56.2887V68.4482H56.287L44.0002 80.7348L31.7137 68.4482H19.5541V56.2887L7.26758 44.0022L19.5541 31.7156V19.5561Z" fill="white"/>
<path fill-rule="evenodd" clip-rule="evenodd" d="M68.4467 31.7156L44.0008 7.26953L19.5547 31.7156V68.4482H68.4467V31.7156ZM46.2798 48.9378C35.3869 50.0631 31.0852 56.8391 31.7128 65.6715H65.6775L65.6735 42.1935C61.06 45.6511 55.6002 47.9748 46.2798 48.9378ZM22.3433 52.1979C27.3646 48.836 33.3272 47.531 45.0262 45.8168C58.3194 43.8691 59.2317 31.8879 52.4054 19.5839L44.0158 11.1874L22.3338 32.8643L22.3433 52.1979Z" fill="#0A4F3D" stroke="white" stroke-width="0.5" stroke-miterlimit="22.9256"/>
<path d="M178.154 85.9568V85.4208H179.784H180.707V84.9511H178.861C178.585 84.9511 178.399 84.9032 178.302 84.8065C178.204 84.7125 178.154 84.5358 178.154 84.2769V83.1055H178.817V84.4593H180.707V83.1055H181.37V85.2826C181.37 85.5404 181.322 85.7173 181.226 85.814C181.123 85.909 180.936 85.9568 180.662 85.9568H179.734H178.861H178.154ZM182.982 85.9568V83.6416H184.871V85.9568H185.536V83.1055H184.827H182.32V83.7797V85.9568H182.982ZM188.508 83.5973H187.016V84.3544H188.508C188.625 84.3544 188.704 84.3377 188.746 84.3046C188.787 84.2715 188.807 84.2126 188.807 84.1277V83.8238C188.807 83.7392 188.787 83.6802 188.746 83.6469C188.704 83.6139 188.625 83.5973 188.508 83.5973ZM186.365 85.9568V83.1055H188.8C189.024 83.1055 189.191 83.1479 189.299 83.2335C189.398 83.3211 189.448 83.4619 189.448 83.658V84.2936C189.448 84.4852 189.398 84.6242 189.298 84.7125C189.193 84.8019 189.027 84.8461 188.8 84.8461H187.016V85.9568H186.365ZM191.538 84.8185H192.785L192.167 83.658L191.538 84.8185ZM190.26 85.9568L191.868 83.1055H192.508L194.145 85.9568H193.399L193.056 85.3324H191.25L190.919 85.9568H190.26ZM196.934 83.5698H195.421V84.2492H196.934C197.047 84.2492 197.126 84.2346 197.172 84.2061C197.217 84.172 197.239 84.1186 197.239 84.0449V83.7742C197.239 83.7006 197.217 83.6469 197.172 83.613C197.126 83.5845 197.047 83.5698 196.934 83.5698ZM196.934 84.719H195.421V85.4429H196.934C197.062 85.4429 197.147 85.4245 197.189 85.3877C197.234 85.3489 197.256 85.2827 197.256 85.1896V84.9741C197.256 84.8792 197.234 84.8131 197.189 84.7743C197.146 84.7373 197.061 84.719 196.934 84.719ZM194.769 85.9568V83.1055H197.211C197.434 83.1055 197.599 83.1498 197.704 83.239C197.803 83.3276 197.852 83.4675 197.852 83.6591V84.0062C197.852 84.1397 197.81 84.2484 197.725 84.3331C197.638 84.4207 197.516 84.4713 197.361 84.487C197.525 84.5091 197.653 84.5689 197.742 84.6647C197.831 84.7577 197.875 84.8802 197.875 85.034V85.3987C197.875 85.5828 197.805 85.7229 197.665 85.8196C197.529 85.9107 197.319 85.9568 197.035 85.9568H194.769ZM200.367 83.1055L202.013 85.9568H201.256L200.101 83.8957L199.003 85.9568H198.339L199.909 83.1055H200.367ZM202.327 85.9568V83.1055H205.245V83.5919H202.99V84.2273H204.307V84.7135H202.99V85.4208H205.273V85.9568H202.327ZM205.985 85.9568V83.1055H206.648V84.2106H208.721V83.1055H209.389V85.9568H208.721V84.73H206.648V85.9568H205.985ZM213.478 85.9568V83.1055H213.025L211.018 84.7862C210.935 84.8507 210.875 84.9023 210.836 84.9401C210.794 84.9825 210.746 85.0348 210.693 85.0949C210.697 85.0368 210.701 84.9751 210.705 84.9069C210.709 84.8397 210.713 84.79 210.715 84.7577C210.719 84.7135 210.721 84.662 210.721 84.603V83.1055H210.124V85.9568H210.577L212.671 84.1932C212.731 84.1416 212.776 84.1011 212.804 84.0726C212.848 84.0283 212.883 83.9914 212.909 83.962C212.907 83.9942 212.903 84.0376 212.898 84.091C212.892 84.1453 212.889 84.1849 212.887 84.2116C212.883 84.2659 212.881 84.3341 212.881 84.4151V85.9568H213.478ZM214.235 85.9568V83.1055H217.153V83.5919H214.898V84.2273H216.214V84.7135H214.898V85.4208H217.181V85.9568H214.235Z" fill="white"/>
<path d="M223.525 84.8185H224.773L224.155 83.658L223.525 84.8185ZM222.248 85.9568L223.856 83.1055H224.496L226.133 85.9568H225.387L225.044 85.3324H223.238L222.907 85.9568H222.248ZM226.63 85.9568V83.1055H227.298V84.2936L228.879 83.1055H229.839L227.95 84.4492L230.072 85.9568H229.006L227.298 84.7024V85.9568H226.63ZM232.427 83.614V85.9568H231.764V83.614H230.455V83.1055H233.741V83.614H232.427ZM237.461 85.9568V83.1055H237.008L235.001 84.7862C234.918 84.8507 234.858 84.9023 234.819 84.9401C234.777 84.9825 234.729 85.0348 234.676 85.0949C234.68 85.0368 234.684 84.9751 234.688 84.9069C234.692 84.8397 234.696 84.79 234.698 84.7577C234.702 84.7135 234.704 84.662 234.704 84.603V83.1055H234.107V85.9568H234.56L236.655 84.1932C236.714 84.1416 236.759 84.1011 236.787 84.0726C236.831 84.0283 236.866 83.9914 236.892 83.962C236.89 83.9942 236.887 84.0376 236.881 84.091C236.876 84.1453 236.872 84.1849 236.87 84.2116C236.866 84.2659 236.864 84.3341 236.864 84.4151V85.9568H237.461ZM240.461 83.5698H238.948V84.2492H240.461C240.573 84.2492 240.652 84.2346 240.698 84.2061C240.743 84.172 240.766 84.1186 240.766 84.0449V83.7742C240.766 83.7006 240.743 83.6469 240.698 83.613C240.652 83.5845 240.573 83.5698 240.461 83.5698ZM240.461 84.719H238.948V85.4429H240.461C240.589 85.4429 240.673 85.4245 240.716 85.3877C240.76 85.3489 240.782 85.2827 240.782 85.1896V84.9741C240.782 84.8792 240.76 84.8131 240.716 84.7743C240.673 84.7373 240.588 84.719 240.461 84.719ZM238.296 85.9568V83.1055H240.738C240.961 83.1055 241.126 83.1498 241.231 83.239C241.329 83.3276 241.379 83.4675 241.379 83.6591V84.0062C241.379 84.1397 241.336 84.2484 241.252 84.3331C241.164 84.4207 241.043 84.4713 240.887 84.487C241.052 84.5091 241.179 84.5689 241.268 84.6647C241.358 84.7577 241.402 84.8802 241.402 85.034V85.3987C241.402 85.5828 241.332 85.7229 241.191 85.8196C241.056 85.9107 240.846 85.9568 240.561 85.9568H238.296ZM243.198 84.8185H244.446L243.828 83.658L243.198 84.8185ZM241.92 85.9568L243.528 83.1055H244.168L245.805 85.9568H245.059L244.716 85.3324H242.911L242.579 85.9568H241.92ZM246.38 85.9568V83.1055H246.916L248.257 84.8286L249.573 83.1055H250.104V85.9568H249.491V84.1932C249.491 84.1426 249.492 84.1002 249.496 84.067C249.501 84.0228 249.506 83.9639 249.512 83.8901C249.494 83.9234 249.478 83.9556 249.462 83.987C249.447 84.0182 249.433 84.0467 249.419 84.0726C249.385 84.1333 249.361 84.172 249.346 84.1885L248.275 85.6142H248.141L247.07 84.1831C247.042 84.1472 247.009 84.0946 246.971 84.0275C246.934 83.9684 246.91 83.9223 246.899 83.8901C246.905 83.95 246.91 84.0052 246.916 84.056V84.1932V85.9568H246.38ZM254.133 85.9568V83.1055H253.68L251.673 84.7862C251.589 84.8507 251.53 84.9023 251.491 84.9401C251.449 84.9825 251.401 85.0348 251.348 85.0949C251.352 85.0368 251.356 84.9751 251.36 84.9069C251.364 84.8397 251.368 84.79 251.37 84.7577C251.374 84.7135 251.376 84.662 251.376 84.603V83.1055H250.779V85.9568H251.232L253.326 84.1932C253.386 84.1416 253.43 84.1011 253.459 84.0726C253.503 84.0283 253.538 83.9914 253.564 83.962C253.562 83.9942 253.558 84.0376 253.553 84.091C253.547 84.1453 253.544 84.1849 253.542 84.2116C253.538 84.2659 253.536 84.3341 253.536 84.4151V85.9568H254.133Z" fill="white"/>
</svg>
