<svg width="28" height="30" viewBox="0 0 28 30" fill="none" xmlns="http://www.w3.org/2000/svg">
<path d="M22.7309 20.1607C21.1639 20.1607 19.7667 20.898 18.8652 22.043L9.83635 16.8303C10.0642 16.2641 10.1908 15.6468 10.1908 15C10.1908 14.3533 10.0641 13.736 9.83635 13.1698L18.8652 7.95707C19.7668 9.10199 21.1639 9.83934 22.7309 9.83934C25.4436 9.83934 27.6505 7.63235 27.6505 4.9197C27.6505 2.20699 25.4436 0 22.7309 0C20.0181 0 17.8112 2.20693 17.8112 4.91958C17.8112 5.56634 17.938 6.1838 18.1658 6.75005L9.13709 11.9628C8.23551 10.8177 6.83829 10.0803 5.2712 10.0803C2.55849 10.0803 0.351562 12.2873 0.351562 15C0.351562 17.7126 2.55849 19.9196 5.2712 19.9196C6.83829 19.9196 8.23551 19.1822 9.13709 18.0372L18.1658 23.25C17.938 23.8162 17.8112 24.4336 17.8112 25.0804C17.8112 27.7931 20.0182 30 22.7309 30C25.4436 30 27.6505 27.7931 27.6505 25.0804C27.6505 22.3678 25.4436 20.1607 22.7309 20.1607ZM22.7309 1.395C24.6744 1.395 26.2556 2.97615 26.2556 4.91958C26.2556 6.86307 24.6744 8.44428 22.7309 8.44428C20.7874 8.44428 19.2062 6.86307 19.2062 4.91958C19.2062 2.97609 20.7874 1.395 22.7309 1.395ZM5.2712 18.5247C3.32771 18.5247 1.7465 16.9435 1.7465 15C1.7465 13.0565 3.32765 11.4753 5.2712 11.4753C7.21469 11.4753 8.7959 13.0565 8.7959 15C8.7959 16.9435 7.21469 18.5247 5.2712 18.5247ZM22.7309 28.6049C20.7874 28.6049 19.2062 27.0238 19.2062 25.0804C19.2062 23.1369 20.7873 21.5557 22.7309 21.5557C24.6744 21.5557 26.2556 23.1369 26.2556 25.0804C26.2556 27.0239 24.6744 28.6049 22.7309 28.6049Z" fill="#099F79"/>
<path d="M5.26918 12.9258C4.12566 12.9258 3.19531 13.8561 3.19531 14.9996C3.19531 15.3848 3.50756 15.6971 3.89281 15.6971C4.27806 15.6971 4.59031 15.3848 4.59031 14.9996C4.59031 14.6253 4.89482 14.3208 5.26918 14.3208C5.65437 14.3208 5.96667 14.0084 5.96667 13.6233C5.96667 13.2381 5.65437 12.9258 5.26918 12.9258Z" fill="#099F79"/>
</svg>
